<?xml version="1.0"?>
<font>
  <info face="HVD Comic Serif Pro" size="72" bold="1" italic="0" charset="" unicode="1" stretchH="100" smooth="1" aa="1" padding="0,0,0,0" spacing="1,1" outline="0"/>
  <common lineHeight="72" base="52" scaleW="512" scaleH="512" pages="1" packed="0" alphaChnl="0" redChnl="4" greenChnl="4" blueChnl="4"/>
  <pages>
    <page id="0" file="score_font_0.png" />
  </pages>
  <chars count="95">
    <char id="32" x="506" y="0" width="3" height="1" xoffset="-1" yoffset="71" xadvance="23" page="0" chnl="15" />
    <char id="33" x="493" y="47" width="17" height="43" xoffset="2" yoffset="9" xadvance="20" page="0" chnl="15" />
    <char id="34" x="56" y="276" width="24" height="16" xoffset="3" yoffset="7" xadvance="28" page="0" chnl="15" />
    <char id="35" x="380" y="139" width="36" height="43" xoffset="2" yoffset="10" xadvance="38" page="0" chnl="15" />
    <char id="36" x="152" y="0" width="33" height="57" xoffset="1" yoffset="2" xadvance="36" page="0" chnl="15" />
    <char id="37" x="432" y="0" width="47" height="46" xoffset="2" yoffset="9" xadvance="52" page="0" chnl="15" />
    <char id="38" x="73" y="60" width="51" height="45" xoffset="1" yoffset="9" xadvance="53" page="0" chnl="15" />
    <char id="39" x="81" y="276" width="13" height="16" xoffset="3" yoffset="8" xadvance="19" page="0" chnl="15" />
    <char id="40" x="268" y="0" width="24" height="49" xoffset="1" yoffset="7" xadvance="26" page="0" chnl="15" />
    <char id="41" x="293" y="0" width="24" height="49" xoffset="1" yoffset="7" xadvance="26" page="0" chnl="15" />
    <char id="42" x="483" y="214" width="25" height="22" xoffset="1" yoffset="6" xadvance="27" page="0" chnl="15" />
    <char id="43" x="376" y="183" width="36" height="35" xoffset="2" yoffset="13" xadvance="39" page="0" chnl="15" />
    <char id="44" x="490" y="126" width="15" height="27" xoffset="3" yoffset="39" xadvance="20" page="0" chnl="15" />
    <char id="45" x="160" y="272" width="22" height="11" xoffset="3" yoffset="31" xadvance="27" page="0" chnl="15" />
    <char id="46" x="490" y="154" width="14" height="13" xoffset="3" yoffset="39" xadvance="20" page="0" chnl="15" />
    <char id="47" x="318" y="0" width="27" height="48" xoffset="2" yoffset="6" xadvance="32" page="0" chnl="15" />
    <char id="48" x="35" y="198" width="34" height="43" xoffset="2" yoffset="10" xadvance="37" page="0" chnl="15" />
    <char id="49" x="254" y="99" width="29" height="44" xoffset="1" yoffset="8" xadvance="32" page="0" chnl="15" />
    <char id="50" x="104" y="195" width="32" height="43" xoffset="1" yoffset="9" xadvance="33" page="0" chnl="15" />
    <char id="51" x="158" y="104" width="32" height="44" xoffset="1" yoffset="9" xadvance="33" page="0" chnl="15" />
    <char id="52" x="191" y="104" width="31" height="44" xoffset="2" yoffset="9" xadvance="35" page="0" chnl="15" />
    <char id="53" x="313" y="188" width="32" height="42" xoffset="0" yoffset="10" xadvance="32" page="0" chnl="15" />
    <char id="54" x="137" y="195" width="30" height="43" xoffset="2" yoffset="9" xadvance="33" page="0" chnl="15" />
    <char id="55" x="454" y="137" width="35" height="43" xoffset="2" yoffset="10" xadvance="37" page="0" chnl="15" />
    <char id="56" x="70" y="196" width="33" height="43" xoffset="2" yoffset="10" xadvance="37" page="0" chnl="15" />
    <char id="57" x="332" y="49" width="31" height="45" xoffset="2" yoffset="9" xadvance="34" page="0" chnl="15" />
    <char id="58" x="488" y="92" width="14" height="33" xoffset="3" yoffset="19" xadvance="20" page="0" chnl="15" />
    <char id="59" x="374" y="0" width="15" height="48" xoffset="3" yoffset="18" xadvance="20" page="0" chnl="15" />
    <char id="60" x="453" y="217" width="29" height="26" xoffset="2" yoffset="20" xadvance="32" page="0" chnl="15" />
    <char id="61" x="0" y="276" width="28" height="19" xoffset="2" yoffset="23" xadvance="32" page="0" chnl="15" />
    <char id="62" x="424" y="218" width="28" height="28" xoffset="3" yoffset="19" xadvance="32" page="0" chnl="15" />
    <char id="63" x="168" y="195" width="29" height="43" xoffset="3" yoffset="9" xadvance="33" page="0" chnl="15" />
    <char id="64" x="208" y="0" width="59" height="52" xoffset="1" yoffset="8" xadvance="62" page="0" chnl="15" />
    <char id="65" x="178" y="149" width="41" height="43" xoffset="1" yoffset="10" xadvance="44" page="0" chnl="15" />
    <char id="66" x="342" y="139" width="37" height="43" xoffset="2" yoffset="10" xadvance="40" page="0" chnl="15" />
    <char id="67" x="198" y="193" width="38" height="42" xoffset="1" yoffset="10" xadvance="40" page="0" chnl="15" />
    <char id="68" x="214" y="53" width="41" height="45" xoffset="1" yoffset="9" xadvance="42" page="0" chnl="15" />
    <char id="69" x="275" y="188" width="37" height="42" xoffset="3" yoffset="10" xadvance="40" page="0" chnl="15" />
    <char id="70" x="417" y="138" width="36" height="43" xoffset="2" yoffset="10" xadvance="39" page="0" chnl="15" />
    <char id="71" x="125" y="58" width="45" height="45" xoffset="1" yoffset="9" xadvance="48" page="0" chnl="15" />
    <char id="72" x="442" y="93" width="45" height="43" xoffset="1" yoffset="10" xadvance="47" page="0" chnl="15" />
    <char id="73" x="284" y="99" width="24" height="44" xoffset="2" yoffset="9" xadvance="28" page="0" chnl="15" />
    <char id="74" x="295" y="50" width="36" height="45" xoffset="1" yoffset="10" xadvance="37" page="0" chnl="15" />
    <char id="75" x="0" y="109" width="41" height="44" xoffset="2" yoffset="9" xadvance="44" page="0" chnl="15" />
    <char id="76" x="0" y="198" width="34" height="43" xoffset="1" yoffset="10" xadvance="36" page="0" chnl="15" />
    <char id="77" x="393" y="94" width="48" height="43" xoffset="1" yoffset="10" xadvance="50" page="0" chnl="15" />
    <char id="78" x="0" y="154" width="45" height="43" xoffset="0" yoffset="10" xadvance="45" page="0" chnl="15" />
    <char id="79" x="408" y="48" width="42" height="44" xoffset="2" yoffset="9" xadvance="45" page="0" chnl="15" />
    <char id="80" x="122" y="106" width="35" height="44" xoffset="1" yoffset="9" xadvance="37" page="0" chnl="15" />
    <char id="81" x="109" y="0" width="42" height="57" xoffset="2" yoffset="10" xadvance="47" page="0" chnl="15" />
    <char id="82" x="135" y="151" width="42" height="43" xoffset="1" yoffset="9" xadvance="43" page="0" chnl="15" />
    <char id="83" x="39" y="60" width="33" height="46" xoffset="1" yoffset="7" xadvance="36" page="0" chnl="15" />
    <char id="84" x="451" y="47" width="41" height="44" xoffset="1" yoffset="8" xadvance="43" page="0" chnl="15" />
    <char id="85" x="364" y="49" width="43" height="44" xoffset="1" yoffset="9" xadvance="46" page="0" chnl="15" />
    <char id="86" x="91" y="151" width="43" height="43" xoffset="1" yoffset="10" xadvance="46" page="0" chnl="15" />
    <char id="87" x="334" y="95" width="58" height="43" xoffset="1" yoffset="10" xadvance="60" page="0" chnl="15" />
    <char id="88" x="46" y="152" width="44" height="43" xoffset="2" yoffset="9" xadvance="47" page="0" chnl="15" />
    <char id="89" x="220" y="149" width="41" height="43" xoffset="2" yoffset="10" xadvance="44" page="0" chnl="15" />
    <char id="90" x="237" y="193" width="37" height="42" xoffset="2" yoffset="10" xadvance="40" page="0" chnl="15" />
    <char id="91" x="87" y="0" width="21" height="58" xoffset="3" yoffset="9" xadvance="25" page="0" chnl="15" />
    <char id="92" x="346" y="0" width="27" height="48" xoffset="2" yoffset="6" xadvance="32" page="0" chnl="15" />
    <char id="93" x="186" y="0" width="21" height="56" xoffset="3" yoffset="10" xadvance="25" page="0" chnl="15" />
    <char id="94" x="29" y="276" width="26" height="16" xoffset="1" yoffset="3" xadvance="27" page="0" chnl="15" />
    <char id="95" x="183" y="272" width="30" height="6" xoffset="2" yoffset="52" xadvance="34" page="0" chnl="15" />
    <char id="96" x="136" y="273" width="23" height="14" xoffset="2" yoffset="4" xadvance="27" page="0" chnl="15" />
    <char id="97" x="102" y="240" width="39" height="32" xoffset="1" yoffset="21" xadvance="40" page="0" chnl="15" />
    <char id="98" x="303" y="144" width="38" height="43" xoffset="1" yoffset="9" xadvance="40" page="0" chnl="15" />
    <char id="99" x="413" y="183" width="33" height="34" xoffset="1" yoffset="19" xadvance="35" page="0" chnl="15" />
    <char id="100" x="82" y="106" width="39" height="44" xoffset="1" yoffset="9" xadvance="40" page="0" chnl="15" />
    <char id="101" x="478" y="181" width="31" height="32" xoffset="1" yoffset="21" xadvance="33" page="0" chnl="15" />
    <char id="102" x="223" y="99" width="30" height="44" xoffset="1" yoffset="8" xadvance="29" page="0" chnl="15" />
    <char id="103" x="0" y="62" width="38" height="46" xoffset="1" yoffset="21" xadvance="40" page="0" chnl="15" />
    <char id="104" x="262" y="144" width="40" height="43" xoffset="1" yoffset="9" xadvance="40" page="0" chnl="15" />
    <char id="105" x="480" y="0" width="25" height="46" xoffset="1" yoffset="6" xadvance="27" page="0" chnl="15" />
    <char id="106" x="0" y="0" width="25" height="61" xoffset="-4" yoffset="6" xadvance="21" page="0" chnl="15" />
    <char id="107" x="171" y="58" width="42" height="45" xoffset="1" yoffset="8" xadvance="44" page="0" chnl="15" />
    <char id="108" x="309" y="96" width="24" height="44" xoffset="2" yoffset="8" xadvance="27" page="0" chnl="15" />
    <char id="109" x="0" y="242" width="60" height="33" xoffset="0" yoffset="19" xadvance="60" page="0" chnl="15" />
    <char id="110" x="61" y="242" width="40" height="33" xoffset="1" yoffset="19" xadvance="40" page="0" chnl="15" />
    <char id="111" x="357" y="225" width="32" height="31" xoffset="1" yoffset="22" xadvance="35" page="0" chnl="15" />
    <char id="112" x="42" y="107" width="39" height="44" xoffset="1" yoffset="22" xadvance="40" page="0" chnl="15" />
    <char id="113" x="256" y="53" width="38" height="45" xoffset="1" yoffset="21" xadvance="37" page="0" chnl="15" />
    <char id="114" x="220" y="236" width="34" height="32" xoffset="1" yoffset="20" xadvance="36" page="0" chnl="15" />
    <char id="115" x="447" y="182" width="30" height="34" xoffset="1" yoffset="20" xadvance="32" page="0" chnl="15" />
    <char id="116" x="346" y="183" width="29" height="41" xoffset="1" yoffset="13" xadvance="32" page="0" chnl="15" />
    <char id="117" x="142" y="239" width="38" height="32" xoffset="1" yoffset="21" xadvance="40" page="0" chnl="15" />
    <char id="118" x="315" y="231" width="41" height="31" xoffset="1" yoffset="22" xadvance="43" page="0" chnl="15" />
    <char id="119" x="255" y="236" width="59" height="31" xoffset="1" yoffset="22" xadvance="60" page="0" chnl="15" />
    <char id="120" x="181" y="239" width="38" height="32" xoffset="2" yoffset="21" xadvance="42" page="0" chnl="15" />
    <char id="121" x="390" y="0" width="41" height="47" xoffset="1" yoffset="21" xadvance="43" page="0" chnl="15" />
    <char id="122" x="390" y="219" width="33" height="30" xoffset="2" yoffset="22" xadvance="36" page="0" chnl="15" />
    <char id="123" x="35" y="0" width="25" height="59" xoffset="1" yoffset="8" xadvance="26" page="0" chnl="15" />
    <char id="124" x="26" y="0" width="8" height="61" xoffset="4" yoffset="6" xadvance="15" page="0" chnl="15" />
    <char id="125" x="61" y="0" width="25" height="59" xoffset="1" yoffset="8" xadvance="26" page="0" chnl="15" />
    <char id="126" x="95" y="276" width="40" height="14" xoffset="2" yoffset="29" xadvance="44" page="0" chnl="15" />
  </chars>
  <kernings count="374">
    <kerning first="65" second="67" amount="-2" />
    <kerning first="65" second="85" amount="-4" />
    <kerning first="65" second="86" amount="-7" />
    <kerning first="65" second="87" amount="-6" />
    <kerning first="65" second="97" amount="-1" />
    <kerning first="65" second="98" amount="-4" />
    <kerning first="65" second="100" amount="-1" />
    <kerning first="65" second="101" amount="-2" />
    <kerning first="65" second="103" amount="-1" />
    <kerning first="65" second="104" amount="-1" />
    <kerning first="65" second="109" amount="-1" />
    <kerning first="65" second="110" amount="-1" />
    <kerning first="65" second="111" amount="-1" />
    <kerning first="65" second="112" amount="-2" />
    <kerning first="65" second="117" amount="-2" />
    <kerning first="65" second="118" amount="-7" />
    <kerning first="65" second="119" amount="-5" />
    <kerning first="65" second="121" amount="-5" />
    <kerning first="122" second="121" amount="-2" />
    <kerning first="122" second="111" amount="-1" />
    <kerning first="122" second="97" amount="-1" />
    <kerning first="121" second="115" amount="-2" />
    <kerning first="121" second="111" amount="-2" />
    <kerning first="121" second="108" amount="-4" />
    <kerning first="121" second="107" amount="-1" />
    <kerning first="121" second="104" amount="-3" />
    <kerning first="121" second="103" amount="-1" />
    <kerning first="121" second="101" amount="-1" />
    <kerning first="121" second="100" amount="-2" />
    <kerning first="121" second="99" amount="-2" />
    <kerning first="121" second="98" amount="-4" />
    <kerning first="121" second="97" amount="-1" />
    <kerning first="121" second="74" amount="-8" />
    <kerning first="121" second="65" amount="-5" />
    <kerning first="120" second="110" amount="-1" />
    <kerning first="120" second="109" amount="-1" />
    <kerning first="120" second="105" amount="-1" />
    <kerning first="120" second="101" amount="-1" />
    <kerning first="120" second="98" amount="-3" />
    <kerning first="119" second="108" amount="-3" />
    <kerning first="119" second="104" amount="-2" />
    <kerning first="119" second="97" amount="-1" />
    <kerning first="119" second="65" amount="-3" />
    <kerning first="118" second="115" amount="-2" />
    <kerning first="66" second="116" amount="-1" />
    <kerning first="66" second="118" amount="-1" />
    <kerning first="67" second="97" amount="-1" />
    <kerning first="67" second="101" amount="-1" />
    <kerning first="67" second="111" amount="-1" />
    <kerning first="118" second="111" amount="-2" />
    <kerning first="118" second="108" amount="-3" />
    <kerning first="118" second="104" amount="-2" />
    <kerning first="118" second="101" amount="-1" />
    <kerning first="118" second="98" amount="-2" />
    <kerning first="118" second="97" amount="-2" />
    <kerning first="118" second="65" amount="-5" />
    <kerning first="117" second="118" amount="-3" />
    <kerning first="117" second="117" amount="-1" />
    <kerning first="117" second="116" amount="-1" />
    <kerning first="117" second="98" amount="-2" />
    <kerning first="116" second="121" amount="-4" />
    <kerning first="116" second="119" amount="-3" />
    <kerning first="116" second="118" amount="-3" />
    <kerning first="116" second="117" amount="-2" />
    <kerning first="116" second="116" amount="-2" />
    <kerning first="68" second="101" amount="1" />
    <kerning first="68" second="104" amount="-1" />
    <kerning first="68" second="109" amount="1" />
    <kerning first="68" second="110" amount="1" />
    <kerning first="68" second="111" amount="1" />
    <kerning first="68" second="117" amount="1" />
    <kerning first="68" second="118" amount="1" />
    <kerning first="68" second="119" amount="1" />
    <kerning first="68" second="121" amount="1" />
    <kerning first="116" second="114" amount="-1" />
    <kerning first="116" second="111" amount="-1" />
    <kerning first="116" second="107" amount="-1" />
    <kerning first="116" second="104" amount="-2" />
    <kerning first="116" second="101" amount="-2" />
    <kerning first="116" second="99" amount="-2" />
    <kerning first="116" second="98" amount="-3" />
    <kerning first="116" second="97" amount="-2" />
    <kerning first="114" second="122" amount="-2" />
    <kerning first="114" second="121" amount="-1" />
    <kerning first="114" second="120" amount="-1" />
    <kerning first="114" second="118" amount="-1" />
    <kerning first="114" second="117" amount="-1" />
    <kerning first="114" second="116" amount="-1" />
    <kerning first="114" second="115" amount="-2" />
    <kerning first="114" second="114" amount="-1" />
    <kerning first="114" second="111" amount="-4" />
    <kerning first="69" second="112" amount="-1" />
    <kerning first="69" second="113" amount="1" />
    <kerning first="69" second="117" amount="-1" />
    <kerning first="69" second="118" amount="-1" />
    <kerning first="69" second="119" amount="-1" />
    <kerning first="114" second="110" amount="-1" />
    <kerning first="114" second="109" amount="-1" />
    <kerning first="114" second="108" amount="-3" />
    <kerning first="114" second="107" amount="-4" />
    <kerning first="114" second="105" amount="-1" />
    <kerning first="70" second="97" amount="-4" />
    <kerning first="70" second="101" amount="-4" />
    <kerning first="70" second="105" amount="-1" />
    <kerning first="70" second="106" amount="-1" />
    <kerning first="70" second="111" amount="-5" />
    <kerning first="70" second="115" amount="-2" />
    <kerning first="70" second="117" amount="-1" />
    <kerning first="114" second="104" amount="-4" />
    <kerning first="114" second="103" amount="-2" />
    <kerning first="114" second="101" amount="-2" />
    <kerning first="114" second="100" amount="-2" />
    <kerning first="114" second="99" amount="-3" />
    <kerning first="114" second="98" amount="-5" />
    <kerning first="114" second="97" amount="-4" />
    <kerning first="112" second="121" amount="-2" />
    <kerning first="112" second="110" amount="-1" />
    <kerning first="112" second="108" amount="-1" />
    <kerning first="112" second="98" amount="-2" />
    <kerning first="111" second="122" amount="-1" />
    <kerning first="111" second="121" amount="-2" />
    <kerning first="111" second="119" amount="-2" />
    <kerning first="111" second="118" amount="-2" />
    <kerning first="111" second="117" amount="-1" />
    <kerning first="111" second="116" amount="-1" />
    <kerning first="111" second="113" amount="1" />
    <kerning first="111" second="110" amount="-1" />
    <kerning first="111" second="109" amount="-1" />
    <kerning first="111" second="108" amount="-1" />
    <kerning first="111" second="107" amount="-1" />
    <kerning first="111" second="106" amount="-1" />
    <kerning first="111" second="104" amount="-2" />
    <kerning first="111" second="101" amount="1" />
    <kerning first="111" second="98" amount="-4" />
    <kerning first="71" second="108" amount="-1" />
    <kerning first="71" second="116" amount="-2" />
    <kerning first="71" second="117" amount="-2" />
    <kerning first="71" second="118" amount="-2" />
    <kerning first="71" second="119" amount="-2" />
    <kerning first="71" second="121" amount="-2" />
    <kerning first="110" second="121" amount="-2" />
    <kerning first="110" second="119" amount="-3" />
    <kerning first="110" second="118" amount="-3" />
    <kerning first="110" second="117" amount="-1" />
    <kerning first="110" second="116" amount="-1" />
    <kerning first="110" second="115" amount="1" />
    <kerning first="72" second="97" amount="-1" />
    <kerning first="72" second="103" amount="-1" />
    <kerning first="72" second="116" amount="-2" />
    <kerning first="72" second="117" amount="-2" />
    <kerning first="72" second="118" amount="-2" />
    <kerning first="72" second="119" amount="-2" />
    <kerning first="72" second="121" amount="-2" />
    <kerning first="110" second="112" amount="-1" />
    <kerning first="110" second="103" amount="-1" />
    <kerning first="110" second="101" amount="-1" />
    <kerning first="110" second="100" amount="-1" />
    <kerning first="110" second="99" amount="-1" />
    <kerning first="110" second="98" amount="-1" />
    <kerning first="109" second="121" amount="-2" />
    <kerning first="109" second="119" amount="-3" />
    <kerning first="109" second="118" amount="-3" />
    <kerning first="109" second="117" amount="-2" />
    <kerning first="109" second="116" amount="-2" />
    <kerning first="109" second="112" amount="-1" />
    <kerning first="73" second="97" amount="-1" />
    <kerning first="73" second="99" amount="-1" />
    <kerning first="73" second="100" amount="-1" />
    <kerning first="73" second="103" amount="-1" />
    <kerning first="73" second="109" amount="-1" />
    <kerning first="73" second="110" amount="-1" />
    <kerning first="73" second="111" amount="-1" />
    <kerning first="73" second="112" amount="-2" />
    <kerning first="73" second="116" amount="-2" />
    <kerning first="73" second="117" amount="-2" />
    <kerning first="73" second="118" amount="-2" />
    <kerning first="73" second="119" amount="-2" />
    <kerning first="73" second="121" amount="-3" />
    <kerning first="109" second="103" amount="-1" />
    <kerning first="109" second="101" amount="-1" />
    <kerning first="109" second="100" amount="-1" />
    <kerning first="109" second="99" amount="-1" />
    <kerning first="109" second="98" amount="-2" />
    <kerning first="108" second="121" amount="-3" />
    <kerning first="108" second="119" amount="-2" />
    <kerning first="108" second="118" amount="-2" />
    <kerning first="108" second="117" amount="-2" />
    <kerning first="108" second="116" amount="-2" />
    <kerning first="108" second="112" amount="-2" />
    <kerning first="108" second="111" amount="-1" />
    <kerning first="108" second="101" amount="-1" />
    <kerning first="108" second="99" amount="-2" />
    <kerning first="108" second="97" amount="-1" />
    <kerning first="107" second="121" amount="-2" />
    <kerning first="107" second="118" amount="-2" />
    <kerning first="107" second="117" amount="-2" />
    <kerning first="107" second="111" amount="-1" />
    <kerning first="107" second="104" amount="-1" />
    <kerning first="107" second="101" amount="-1" />
    <kerning first="107" second="100" amount="-1" />
    <kerning first="74" second="97" amount="-2" />
    <kerning first="74" second="101" amount="-2" />
    <kerning first="74" second="105" amount="-1" />
    <kerning first="74" second="111" amount="-2" />
    <kerning first="107" second="99" amount="-1" />
    <kerning first="107" second="98" amount="-2" />
    <kerning first="107" second="97" amount="-2" />
    <kerning first="106" second="106" amount="2" />
    <kerning first="105" second="119" amount="-4" />
    <kerning first="105" second="118" amount="-4" />
    <kerning first="105" second="116" amount="-3" />
    <kerning first="105" second="112" amount="-2" />
    <kerning first="105" second="111" amount="-1" />
    <kerning first="105" second="110" amount="-1" />
    <kerning first="105" second="106" amount="-1" />
    <kerning first="105" second="104" amount="-1" />
    <kerning first="105" second="103" amount="-1" />
    <kerning first="105" second="101" amount="-1" />
    <kerning first="105" second="100" amount="-1" />
    <kerning first="105" second="99" amount="-1" />
    <kerning first="105" second="98" amount="-2" />
    <kerning first="105" second="97" amount="-2" />
    <kerning first="104" second="121" amount="-2" />
    <kerning first="104" second="117" amount="-1" />
    <kerning first="103" second="111" amount="-1" />
    <kerning first="75" second="97" amount="-1" />
    <kerning first="75" second="101" amount="-1" />
    <kerning first="75" second="117" amount="-3" />
    <kerning first="75" second="121" amount="-5" />
    <kerning first="103" second="108" amount="-2" />
    <kerning first="103" second="104" amount="-1" />
    <kerning first="103" second="103" amount="-1" />
    <kerning first="103" second="101" amount="-1" />
    <kerning first="103" second="99" amount="-1" />
    <kerning first="103" second="98" amount="-2" />
    <kerning first="102" second="111" amount="-1" />
    <kerning first="102" second="107" amount="1" />
    <kerning first="102" second="104" amount="1" />
    <kerning first="102" second="98" amount="2" />
    <kerning first="101" second="121" amount="-1" />
    <kerning first="101" second="120" amount="-1" />
    <kerning first="101" second="110" amount="-1" />
    <kerning first="101" second="108" amount="-2" />
    <kerning first="101" second="107" amount="-1" />
    <kerning first="101" second="104" amount="-2" />
    <kerning first="76" second="84" amount="-3" />
    <kerning first="76" second="85" amount="-2" />
    <kerning first="76" second="86" amount="-5" />
    <kerning first="76" second="87" amount="-5" />
    <kerning first="76" second="89" amount="-6" />
    <kerning first="76" second="117" amount="-1" />
    <kerning first="76" second="121" amount="-3" />
    <kerning first="101" second="100" amount="-1" />
    <kerning first="101" second="98" amount="-3" />
    <kerning first="100" second="121" amount="-2" />
    <kerning first="100" second="119" amount="-3" />
    <kerning first="100" second="118" amount="-4" />
    <kerning first="100" second="117" amount="-1" />
    <kerning first="100" second="115" amount="1" />
    <kerning first="100" second="101" amount="-1" />
    <kerning first="77" second="97" amount="-1" />
    <kerning first="77" second="117" amount="-2" />
    <kerning first="77" second="121" amount="-2" />
    <kerning first="100" second="98" amount="-1" />
    <kerning first="99" second="111" amount="-1" />
    <kerning first="99" second="108" amount="-1" />
    <kerning first="99" second="104" amount="-1" />
    <kerning first="99" second="99" amount="-1" />
    <kerning first="98" second="121" amount="-1" />
    <kerning first="98" second="119" amount="-1" />
    <kerning first="98" second="118" amount="-1" />
    <kerning first="98" second="111" amount="1" />
    <kerning first="98" second="108" amount="-1" />
    <kerning first="98" second="104" amount="-2" />
    <kerning first="98" second="98" amount="-2" />
    <kerning first="78" second="97" amount="-2" />
    <kerning first="78" second="101" amount="-2" />
    <kerning first="78" second="111" amount="-2" />
    <kerning first="78" second="117" amount="-2" />
    <kerning first="78" second="121" amount="-1" />
    <kerning first="98" second="97" amount="1" />
    <kerning first="97" second="116" amount="1" />
    <kerning first="97" second="107" amount="1" />
    <kerning first="97" second="102" amount="1" />
    <kerning first="97" second="98" amount="-1" />
    <kerning first="89" second="117" amount="-2" />
    <kerning first="89" second="115" amount="-4" />
    <kerning first="89" second="112" amount="-4" />
    <kerning first="89" second="111" amount="-6" />
    <kerning first="89" second="105" amount="-3" />
    <kerning first="89" second="101" amount="-6" />
    <kerning first="89" second="97" amount="-7" />
    <kerning first="89" second="81" amount="-3" />
    <kerning first="89" second="79" amount="-3" />
    <kerning first="89" second="74" amount="-7" />
    <kerning first="89" second="71" amount="-3" />
    <kerning first="89" second="67" amount="-2" />
    <kerning first="89" second="65" amount="-6" />
    <kerning first="88" second="121" amount="-4" />
    <kerning first="88" second="101" amount="-1" />
    <kerning first="88" second="97" amount="-1" />
    <kerning first="87" second="121" amount="-1" />
    <kerning first="79" second="97" amount="-1" />
    <kerning first="79" second="98" amount="-2" />
    <kerning first="79" second="104" amount="-2" />
    <kerning first="79" second="107" amount="-1" />
    <kerning first="79" second="108" amount="-2" />
    <kerning first="87" second="117" amount="-1" />
    <kerning first="87" second="115" amount="-5" />
    <kerning first="87" second="111" amount="-4" />
    <kerning first="87" second="105" amount="-1" />
    <kerning first="87" second="101" amount="-4" />
    <kerning first="87" second="97" amount="-5" />
    <kerning first="80" second="97" amount="-2" />
    <kerning first="80" second="100" amount="-1" />
    <kerning first="80" second="101" amount="-2" />
    <kerning first="80" second="103" amount="-2" />
    <kerning first="80" second="104" amount="-1" />
    <kerning first="80" second="108" amount="-2" />
    <kerning first="80" second="111" amount="-2" />
    <kerning first="80" second="115" amount="-2" />
    <kerning first="87" second="74" amount="-8" />
    <kerning first="87" second="65" amount="-5" />
    <kerning first="86" second="115" amount="-5" />
    <kerning first="86" second="111" amount="-5" />
    <kerning first="86" second="105" amount="-1" />
    <kerning first="86" second="101" amount="-5" />
    <kerning first="86" second="97" amount="-5" />
    <kerning first="86" second="74" amount="-8" />
    <kerning first="86" second="65" amount="-7" />
    <kerning first="85" second="122" amount="-1" />
    <kerning first="85" second="120" amount="-2" />
    <kerning first="85" second="119" amount="-2" />
    <kerning first="85" second="118" amount="-2" />
    <kerning first="85" second="116" amount="-2" />
    <kerning first="85" second="115" amount="-2" />
    <kerning first="85" second="114" amount="-1" />
    <kerning first="85" second="113" amount="-2" />
    <kerning first="85" second="112" amount="-1" />
    <kerning first="81" second="86" amount="-3" />
    <kerning first="81" second="87" amount="-3" />
    <kerning first="81" second="89" amount="-4" />
    <kerning first="81" second="116" amount="-2" />
    <kerning first="81" second="117" amount="-2" />
    <kerning first="85" second="111" amount="-2" />
    <kerning first="85" second="110" amount="-2" />
    <kerning first="85" second="109" amount="-2" />
    <kerning first="85" second="105" amount="-1" />
    <kerning first="85" second="103" amount="-2" />
    <kerning first="85" second="102" amount="-2" />
    <kerning first="82" second="97" amount="-2" />
    <kerning first="82" second="100" amount="-2" />
    <kerning first="82" second="101" amount="-2" />
    <kerning first="82" second="106" amount="-2" />
    <kerning first="82" second="111" amount="-2" />
    <kerning first="82" second="116" amount="-2" />
    <kerning first="82" second="117" amount="-2" />
    <kerning first="82" second="118" amount="-3" />
    <kerning first="82" second="119" amount="-3" />
    <kerning first="82" second="121" amount="-3" />
    <kerning first="85" second="101" amount="-2" />
    <kerning first="85" second="100" amount="-2" />
    <kerning first="85" second="97" amount="-2" />
    <kerning first="84" second="111" amount="-3" />
    <kerning first="84" second="105" amount="-1" />
    <kerning first="84" second="101" amount="-2" />
    <kerning first="84" second="100" amount="-1" />
    <kerning first="83" second="121" amount="-1" />
    <kerning first="83" second="119" amount="-1" />
    <kerning first="83" second="118" amount="-1" />
    <kerning first="83" second="116" amount="-1" />
    <kerning first="83" second="114" amount="-1" />
    <kerning first="83" second="112" amount="-1" />
    <kerning first="83" second="105" amount="-1" />
  </kernings>
</font>
